…
2. Join this with (part of) Gapminder using a  dplyr join function and make some observations about the process and result. Explore the different types of joins. 

```r
left_join(gapminder, Travelling, by="country")
```

```
## # A tibble: 1,704 x 8
##        country continent  year lifeExp      pop gdpPercap travelled lived
##          <chr>    <fctr> <int>   <dbl>    <int>     <dbl>     <chr> <chr>
##  1 Afghanistan      Asia  1952  28.801  8425333  779.4453      <NA>  <NA>
##  2 Afghanistan      Asia  1957  30.332  9240934  820.8530      <NA>  <NA>
##  3 Afghanistan      Asia  1962  31.997 10267083  853.1007      <NA>  <NA>
##  4 Afghanistan      Asia  1967  34.020 11537966  836.1971      <NA>  <NA>
##  5 Afghanistan      Asia  1972  36.088 13079460  739.9811      <NA>  <NA>
##  6 Afghanistan      Asia  1977  38.438 14880372  786.1134      <NA>  <NA>
##  7 Afghanistan      Asia  1982  39.854 12881816  978.0114      <NA>  <NA>
##  8 Afghanistan      Asia  1987  40.822 13867957  852.3959      <NA>  <NA>
##  9 Afghanistan      Asia  1992  41.674 16317921  649.3414      <NA>  <NA>
## 10 Afghanistan      Asia  1997  41.763 22227415  635.3414      <NA>  <NA>
## # ... with 1,694 more rows
```
**left_join()** adds the columns from the traveling dataset to the gapminder dataset based on country. All observations from gapminder are included, where countries not listed in the traveling dataset have N/A for the new columns. It does not include countries in the traveling dataset that are not in gapminder. This would be helpful if I wanted to do an analysis that involved not losing observations from the gapminder dataset.


```r
right_join(gapminder, Travelling, by="country")
```

```
## # A tibble: 97 x 8
##    country continent  year lifeExp      pop gdpPercap travelled lived
##      <chr>    <fctr> <int>   <dbl>    <int>     <dbl>     <chr> <chr>
##  1  Canada  Americas  1952   68.75 14785584  11367.16       Yes   Yes
##  2  Canada  Americas  1957   69.96 17010154  12489.95       Yes   Yes
##  3  Canada  Americas  1962   71.30 18985849  13462.49       Yes   Yes
##  4  Canada  Americas  1967   72.13 20819767  16076.59       Yes   Yes
##  5  Canada  Americas  1972   72.88 22284500  18970.57       Yes   Yes
##  6  Canada  Americas  1977   74.21 23796400  22090.88       Yes   Yes
##  7  Canada  Americas  1982   75.76 25201900  22898.79       Yes   Yes
##  8  Canada  Americas  1987   76.86 26549700  26626.52       Yes   Yes
##  9  Canada  Americas  1992   77.95 28523502  26342.88       Yes   Yes
## 10  Canada  Americas  1997   78.61 30305843  28954.93       Yes   Yes
## # ... with 87 more rows
```
**right_join()** adds the columns from the gapminder dataset to the travling dataset based on country. Countries not listed in the traveling dataset but in the gapminder dataset have been excluded from the join. All rows from traveling are maintained using this function. This would be helpful if I wanted to do an analysis that did not lose any observations from the traveling dataset. 


```r
inner_join(gapminder, Travelling, by="country")
```

```
## Warning: Column `country` joining factors with different levels, coercing
## to character vector
```

```
## # A tibble: 96 x 8
##      country continent  year lifeExp      pop gdpPercap travelled lived
##        <chr>    <fctr> <int>   <dbl>    <int>     <dbl>     <chr> <chr>
##  1 Australia   Oceania  1952   69.12  8691212  10039.60       Yes    No
##  2 Australia   Oceania  1957   70.33  9712569  10949.65       Yes    No
##  3 Australia   Oceania  1962   70.93 10794968  12217.23       Yes    No
##  4 Australia   Oceania  1967   71.10 11872264  14526.12       Yes    No
##  5 Australia   Oceania  1972   71.93 13177000  16788.63       Yes    No
##  6 Australia   Oceania  1977   73.49 14074100  18334.20       Yes    No
##  7 Australia   Oceania  1982   74.74 15184200  19477.01       Yes    No
##  8 Australia   Oceania  1987   76.32 16257249  21888.89       Yes    No
##  9 Australia   Oceania  1992   77.56 17481977  23424.77       Yes    No
## 10 Australia   Oceania  1997   78.83 18565243  26997.94       Yes    No
## # ... with 86 more rows
```
…
```r
semi_join(gapminder, Travelling)
```

```
## Joining, by = "country"
```

```
## Warning: Column `country` joining factors with different levels, coercing
## to character vector
```

```
## # A tibble: 96 x 6
##      country continent  year lifeExp      pop gdpPercap
##       <fctr>    <fctr> <int>   <dbl>    <int>     <dbl>
##  1 Australia   Oceania  1952   69.12  8691212  10039.60
##  2 Australia   Oceania  1957   70.33  9712569  10949.65
##  3 Australia   Oceania  1962   70.93 10794968  12217.23
##  4 Australia   Oceania  1967   71.10 11872264  14526.12
##  5 Australia   Oceania  1972   71.93 13177000  16788.63
##  6 Australia   Oceania  1977   73.49 14074100  18334.20
##  7 Australia   Oceania  1982   74.74 15184200  19477.01
##  8 Australia   Oceania  1987   76.32 16257249  21888.89
##  9 Australia   Oceania  1992   77.56 17481977  23424.77
## 10 Australia   Oceania  1997   78.83 18565243  26997.94
## # ... with 86 more rows
```
…
