…
## Task 3
Explore the effects of arrange().Note: these explorations should involve the data, the factor levels, and some figures.
1. Does merely arranging the data have any effect on, say, a figure?

```r
#original data set
gapminder
```

```
## # A tibble: 1,704 x 6
##        country continent  year lifeExp      pop gdpPercap
##         <fctr>    <fctr> <int>   <dbl>    <int>     <dbl>
##  1 Afghanistan      Asia  1952  28.801  8425333  779.4453
##  2 Afghanistan      Asia  1957  30.332  9240934  820.8530
##  3 Afghanistan      Asia  1962  31.997 10267083  853.1007
##  4 Afghanistan      Asia  1967  34.020 11537966  836.1971
##  5 Afghanistan      Asia  1972  36.088 13079460  739.9811
##  6 Afghanistan      Asia  1977  38.438 14880372  786.1134
##  7 Afghanistan      Asia  1982  39.854 12881816  978.0114
##  8 Afghanistan      Asia  1987  40.822 13867957  852.3959
##  9 Afghanistan      Asia  1992  41.674 16317921  649.3414
## 10 Afghanistan      Asia  1997  41.763 22227415  635.3414
## # ... with 1,694 more rows
```
…
```r
#arranging by gdpPercap

gapminder %>%
  arrange(gdpPercap)
```

```
## # A tibble: 1,704 x 6
##             country continent  year lifeExp      pop gdpPercap
##              <fctr>    <fctr> <int>   <dbl>    <int>     <dbl>
##  1 Congo, Dem. Rep.    Africa  2002  44.966 55379852  241.1659
##  2 Congo, Dem. Rep.    Africa  2007  46.462 64606759  277.5519
##  3          Lesotho    Africa  1952  42.138   748747  298.8462
##  4    Guinea-Bissau    Africa  1952  32.500   580653  299.8503
##  5 Congo, Dem. Rep.    Africa  1997  42.587 47798986  312.1884
##  6          Eritrea    Africa  1952  35.928  1438760  328.9406
##  7          Myanmar      Asia  1952  36.319 20092996  331.0000
##  8          Lesotho    Africa  1957  45.047   813338  335.9971
##  9          Burundi    Africa  1952  39.031  2445618  339.2965
## 10          Eritrea    Africa  1957  38.047  1542611  344.1619
## # ... with 1,694 more rows
```
…
```r
#Using arrange on the gap2007 dataset (country factor has been reordered based on min gdpPercap)  
  gap2007_life <-
  gap2007 %>%
    arrange(lifeExp)

#look at tables
gap2007
```

```
## # A tibble: 142 x 6
##        country continent  year lifeExp       pop  gdpPercap
##         <fctr>    <fctr> <int>   <dbl>     <int>      <dbl>
##  1 Afghanistan      Asia  2007  43.828  31889923   974.5803
##  2     Albania    Europe  2007  76.423   3600523  5937.0295
##  3     Algeria    Africa  2007  72.301  33333216  6223.3675
##  4      Angola    Africa  2007  42.731  12420476  4797.2313
##  5   Argentina  Americas  2007  75.320  40301927 12779.3796
##  6   Australia   Oceania  2007  81.235  20434176 34435.3674
##  7     Austria    Europe  2007  79.829   8199783 36126.4927
##  8     Bahrain      Asia  2007  75.635    708573 29796.0483
##  9  Bangladesh      Asia  2007  64.062 150448339  1391.2538
## 10     Belgium    Europe  2007  79.441  10392226 33692.6051
## # ... with 132 more rows
```

```r
gap2007_life
```

```
## # A tibble: 142 x 6
##                     country continent  year lifeExp      pop gdpPercap
##                      <fctr>    <fctr> <int>   <dbl>    <int>     <dbl>
##  1                Swaziland    Africa  2007  39.613  1133066 4513.4806
##  2               Mozambique    Africa  2007  42.082 19951656  823.6856
##  3                   Zambia    Africa  2007  42.384 11746035 1271.2116
##  4             Sierra Leone    Africa  2007  42.568  6144562  862.5408
##  5                  Lesotho    Africa  2007  42.592  2012649 1569.3314
##  6                   Angola    Africa  2007  42.731 12420476 4797.2313
##  7                 Zimbabwe    Africa  2007  43.487 12311143  469.7093
##  8              Afghanistan      Asia  2007  43.828 31889923  974.5803
##  9 Central African Republic    Africa  2007  44.741  4369038  706.0165
## 10                  Liberia    Africa  2007  45.678  3193942  414.5073
## # ... with 132 more rows
```
…
