…
## Using dplyr functions and piping

```r
#Looking at countries with the highest average life expectancy over time
  gapminder %>%
  group_by(country) %>%
  summarize(meanLife = round(mean(lifeExp), 1)) %>%
  arrange(desc(meanLife))
```

```
## # A tibble: 142 x 2
##        country meanLife
##         <fctr>    <dbl>
##  1     Iceland     76.5
##  2      Sweden     76.2
##  3      Norway     75.8
##  4 Netherlands     75.6
##  5 Switzerland     75.6
##  6      Canada     74.9
##  7       Japan     74.8
##  8   Australia     74.7
##  9     Denmark     74.4
## 10      France     74.3
## # ... with 132 more rows
```
You can see that Iceland followed closely by Sweden have the highest life expectancy over time at 76.5 years and 76.2 years respectively. Canada is 6th (74.9 years).


```r
#Looking at countries with the highest average life expectancy over time
  gapminder %>%
  group_by(country) %>%
  summarize(meanLife = round(mean(lifeExp), 1)) %>%
  arrange(meanLife)
```

```
## # A tibble: 142 x 2
##              country meanLife
##               <fctr>    <dbl>
##  1      Sierra Leone     36.8
##  2       Afghanistan     37.5
##  3            Angola     37.9
##  4     Guinea-Bissau     39.2
##  5        Mozambique     40.4
##  6           Somalia     41.0
##  7            Rwanda     41.5
##  8           Liberia     42.5
##  9 Equatorial Guinea     43.0
## 10            Guinea     43.2
## # ... with 132 more rows
```
…
